1
44.9916599,9.0120442
44.990445881230386
9.010327586230494
44.992873893054224
9.013760813769554
{'lat': 53.79434365352854, 'lon': -1.534639431799627, 'name': 'The Chandlers', 'icon': 'door'}
{'lat': 53.79440308538747, 'lon': -1.534735671499546, 'name': 'The Chandlers', 'icon': 'door'}
{'lat': 53.79425970871591, 'lon': -1.534675876957149, 'name': 'The Chandlers', 'icon': 'door'}
{'lat': 53.79425970871591, 'lon': -1.534675876957149, 'name': 'The Chandlers', 'icon': 'door'}
{'lat': 53.79427513360326, 'lon': -1.534645089591352, 'name': 'The Chandlers', 'icon': 'door'}
